COA/Lab/alterafiles/lab_06_coa/task1/simulation/qsim/ledBlinking.msim.vcd
$comment
	File created using the following command:
		vcd file ledBlinking.msim.vcd -direction
$end
$date
	Fri Mar 21 09:19:33 2025
$end
$version
	ModelSim Version 10.1d
$end
$timescale
	1ps
$end
$scope module ledBlinking_vlg_vec_tst $end
$var reg 1 ! fpga_clk $end
$var reg 3 " switch [2:0] $end
$var wire 1 # led [3] $end
$var wire 1 $ led [2] $end
$var wire 1 % led [1] $end
$var wire 1 & led [0] $end
$var wire 1 ' sampler $end
$scope module i1 $end
$var wire 1 ( gnd $end
$var wire 1 ) vcc $end
$var wire 1 * unknown $end
$var tri1 1 + devclrn $end
$var tri1 1 , devpor $end
$var tri1 1 - devoe $end
$var wire 1 . led[0]~output_o $end
$var wire 1 / led[1]~output_o $end
$var wire 1 0 led[2]~output_o $end
$var wire 1 1 led[3]~output_o $end
$var wire 1 2 fpga_clk~input_o $end
$var wire 1 3 fpga_clk~inputclkctrl_outclk $end
$var wire 1 4 switch[0]~input_o $end
$var wire 1 5 count[0]~93_combout $end
$var wire 1 6 count[1]~31_combout $end
$var wire 1 7 count[1]~32 $end
$var wire 1 8 count[2]~33_combout $end
$var wire 1 9 count[2]~34 $end
$var wire 1 : count[3]~35_combout $end
$var wire 1 ; count[3]~36 $end
$var wire 1 < count[4]~37_combout $end
$var wire 1 = count[4]~38 $end
$var wire 1 > count[5]~39_combout $end
$var wire 1 ? count[5]~40 $end
$var wire 1 @ count[6]~41_combout $end
$var wire 1 A count[6]~42 $end
$var wire 1 B count[7]~43_combout $end
$var wire 1 C count[7]~44 $end
$var wire 1 D count[8]~45_combout $end
$var wire 1 E count[8]~46 $end
$var wire 1 F count[9]~47_combout $end
$var wire 1 G count[9]~48 $end
$var wire 1 H count[10]~49_combout $end
$var wire 1 I count[10]~50 $end
$var wire 1 J count[11]~51_combout $end
$var wire 1 K count[11]~52 $end
$var wire 1 L count[12]~53_combout $end
$var wire 1 M count[12]~54 $end
$var wire 1 N count[13]~55_combout $end
$var wire 1 O count[13]~56 $end
$var wire 1 P count[14]~57_combout $end
$var wire 1 Q count[14]~58 $end
$var wire 1 R count[15]~59_combout $end
$var wire 1 S switch[1]~input_o $end
$var wire 1 T switch[2]~input_o $end
$var wire 1 U count[15]~60 $end
$var wire 1 V count[16]~61_combout $end
$var wire 1 W count[16]~62 $end
$var wire 1 X count[17]~63_combout $end
$var wire 1 Y count[17]~64 $end
$var wire 1 Z count[18]~65_combout $end
$var wire 1 [ count[18]~66 $end
$var wire 1 \ count[19]~67_combout $end
$var wire 1 ] count[19]~68 $end
$var wire 1 ^ count[20]~69_combout $end
$var wire 1 _ count[20]~70 $end
$var wire 1 ` count[21]~71_combout $end
$var wire 1 a count[21]~72 $end
$var wire 1 b count[22]~73_combout $end
$var wire 1 c count[22]~74 $end
$var wire 1 d count[23]~75_combout $end
$var wire 1 e count[23]~76 $end
$var wire 1 f count[24]~77_combout $end
$var wire 1 g count[24]~78 $end
$var wire 1 h count[25]~79_combout $end
$var wire 1 i count[25]~80 $end
$var wire 1 j count[26]~81_combout $end
$var wire 1 k count[26]~82 $end
$var wire 1 l count[27]~83_combout $end
$var wire 1 m count[27]~84 $end
$var wire 1 n count[28]~85_combout $end
$var wire 1 o count[28]~86 $end
$var wire 1 p count[29]~87_combout $end
$var wire 1 q count[29]~88 $end
$var wire 1 r count[30]~89_combout $end
$var wire 1 s count[30]~90 $end
$var wire 1 t count[31]~91_combout $end
$var wire 1 u Mux0~0_combout $end
$var wire 1 v Mux0~1_combout $end
$var wire 1 w Mux0~2_combout $end
$var wire 1 x top_clk~q $end
$var wire 1 y ledout[0]~0_combout $end
$var wire 1 z ledout [3] $end
$var wire 1 { ledout [2] $end
$var wire 1 | ledout [1] $end
$var wire 1 } ledout [0] $end
$var wire 1 ~ count [31] $end
$var wire 1 !! count [30] $end
$var wire 1 "! count [29] $end
$var wire 1 #! count [28] $end
$var wire 1 $! count [27] $end
$var wire 1 %! count [26] $end
$var wire 1 &! count [25] $end
$var wire 1 '! count [24] $end
$var wire 1 (! count [23] $end
$var wire 1 )! count [22] $end
$var wire 1 *! count [21] $end
$var wire 1 +! count [20] $end
$var wire 1 ,! count [19] $end
$var wire 1 -! count [18] $end
$var wire 1 .! count [17] $end
$var wire 1 /! count [16] $end
$var wire 1 0! count [15] $end
$var wire 1 1! count [14] $end
$var wire 1 2! count [13] $end
$var wire 1 3! count [12] $end
$var wire 1 4! count [11] $end
$var wire 1 5! count [10] $end
$var wire 1 6! count [9] $end
$var wire 1 7! count [8] $end
$var wire 1 8! count [7] $end
$var wire 1 9! count [6] $end
$var wire 1 :! count [5] $end
$var wire 1 ;! count [4] $end
$var wire 1 <! count [3] $end
$var wire 1 =! count [2] $end
$var wire 1 >! count [1] $end
$var wire 1 ?! count [0] $end
$upscope $end
$upscope $end
$enddefinitions $end
#0
$dumpvars
0!
b1 "
0&
0%
0$
0#
x'
0(
1)
x*
1+
1,
1-
0.
0/
00
01
02
03
14
15
06
07
08
19
0:
0;
0<
1=
0>
0?
0@
1A
0B
0C
0D
1E
0F
0G
0H
1I
0J
0K
0L
1M
0N
0O
0P
1Q
0R
0S
0T
0U
0V
1W
0X
0Y
0Z
1[
0\
0]
0^
1_
0`
0a
0b
1c
0d
0e
0f
1g
0h
0i
0j
1k
0l
0m
0n
1o
0p
0q
0r
1s
0t
0u
0v
0w
0x
1y
0}
z|
z{
zz
0?!
0>!
0=!
0<!
0;!
0:!
09!
08!
07!
06!
05!
04!
03!
02!
01!
00!
0/!
0.!
0-!
0,!
0+!
0*!
0)!
0(!
0'!
0&!
0%!
0$!
0#!
0"!
0!!
0~
$end
#5000
1!
12
13
0'
1?!
16
05
#10000
0!
02
03
1'
#15000
1!
12
13
0'
1>!
0?!
15
#20000
0!
02
03
1'
#25000
1!
12
13
0'
1?!
17
06
05
18
#30000
0!
02
03
1'
#35000
1!
12
13
0'
1=!
0>!
0?!
1w
09
08
07
15
1:
19
18
0:
#40000
0!
02
03
1'
#45000
1!
12
13
0'
1x
1?!
16
05
1}
0y
11
10
1/
1.
1#
1$
1%
1&
#50000
0!
02
03
1'
#55000
1!
12
13
0'
1>!
0?!
15
#60000
0!
02
03
1'
#65000
1!
12
13
0'
1?!
17
06
05
09
08
1:
#70000
0!
02
03
1'
#75000
1!
12
13
0'
1<!
0=!
0>!
0?!
1;
0:
0w
19
18
07
15
1<
0;
1:
08
0<
#80000
0!
02
03
1'
#85000
1!
12
13
0'
0x
1?!
16
05
#90000
0!
02
03
1'
#95000
1!
12
13
0'
1>!
0?!
15
#100000
0!
02
03
1'
#105000
1!
12
13
0'
1?!
17
06
05
18
#110000
0!
02
03
1'
#115000
1!
12
13
0'
1=!
0>!
0?!
1w
09
08
07
15
1;
0:
19
18
1<
0;
1:
0<
#120000
0!
02
03
1'
#125000
1!
12
13
0'
1x
1?!
16
05
0}
1y
01
00
0/
0.
0#
0$
0%
0&
#130000
0!
02
03
1'
#135000
1!
12
13
0'
1>!
0?!
15
#140000
0!
02
03
1'
#145000
1!
12
13
0'
1?!
17
06
05
09
08
1;
0:
1<
#150000
0!
02
03
1'
#155000
1!
12
13
0'
1;!
0<!
0=!
0>!
0?!
0=
0<
0;
1:
0w
19
18
07
15
1>
1=
1<
0:
08
0>
#160000
0!
02
03
1'
#165000
1!
12
13
0'
0x
1?!
16
05
#170000
0!
02
03
1'
#175000
1!
12
13
0'
1>!
0?!
15
#180000
0!
02
03
1'
#185000
1!
12
13
0'
1?!
17
06
05
18
#190000
0!
02
03
1'
#195000
1!
12
13
0'
1=!
0>!
0?!
1w
09
08
07
15
1:
19
18
0:
#200000
0!
02
03
1'
#205000
1!
12
13
0'
1x
1?!
16
05
1}
0y
11
10
1/
1.
1#
1$
1%
1&
#210000
0!
02
03
1'
#215000
1!
12
13
0'
1>!
0?!
15
#220000
0!
02
03
1'
#225000
1!
12
13
0'
1?!
17
06
05
09
08
1:
#230000
0!
02
03
1'
#235000
1!
12
13
0'
1<!
0=!
0>!
0?!
1;
0:
0w
19
18
07
15
0=
0<
0;
1:
08
1>
1=
1<
0>
#240000
0!
02
03
1'
#245000
1!
12
13
0'
0x
1?!
16
05
#250000
0!
02
03
1'
#255000
1!
12
13
0'
1>!
0?!
15
#260000
0!
02
03
1'
#265000
1!
12
13
0'
1?!
17
06
05
18
#270000
0!
02
03
1'
#275000
1!
12
13
0'
1=!
0>!
0?!
1w
09
08
07
15
1;
0:
19
18
0=
0<
0;
1:
1>
1=
1<
0>
#280000
0!
02
03
1'
#285000
1!
12
13
0'
1x
1?!
16
05
0}
1y
01
00
0/
0.
0#
0$
0%
0&
#290000
0!
02
03
1'
#295000
1!
12
13
0'
1>!
0?!
15
#300000
0!
02
03
1'
#305000
1!
12
13
0'
1?!
17
06
05
09
08
1;
0:
0=
0<
1>
#310000
0!
02
03
1'
#315000
1!
12
13
0'
1:!
0;!
0<!
0=!
0>!
0?!
1?
0>
1=
1<
0;
1:
0w
19
18
07
15
1@
0?
1>
0<
0:
08
0@
#320000
0!
02
03
1'
#325000
1!
12
13
0'
0x
1?!
16
05
#330000
0!
02
03
1'
#335000
1!
12
13
0'
1>!
0?!
15
#340000
0!
02
03
1'
#345000
1!
12
13
0'
1?!
17
06
05
18
#350000
0!
02
03
1'
#355000
1!
12
13
0'
1=!
0>!
0?!
1w
09
08
07
15
1:
19
18
0:
#360000
0!
02
03
1'
#365000
1!
12
13
0'
1x
1?!
16
05
1}
0y
11
10
1/
1.
1#
1$
1%
1&
#370000
0!
02
03
1'
#375000
1!
12
13
0'
1>!
0?!
15
#380000
0!
02
03
1'
#385000
1!
12
13
0'
1?!
17
06
05
09
08
1:
#390000
0!
02
03
1'
#395000
1!
12
13
0'
1<!
0=!
0>!
0?!
1;
0:
0w
19
18
07
15
1<
0;
1:
08
0<
#400000
0!
02
03
1'
#405000
1!
12
13
0'
0x
1?!
16
05
#410000
0!
02
03
1'
#415000
1!
12
13
0'
1>!
0?!
15
#420000
0!
02
03
1'
#425000
1!
12
13
0'
1?!
17
06
05
18
#430000
0!
02
03
1'
#435000
1!
12
13
0'
1=!
0>!
0?!
1w
09
08
07
15
1;
0:
19
18
1<
0;
1:
0<
#440000
0!
02
03
1'
#445000
1!
12
13
0'
1x
1?!
16
05
0}
1y
01
00
0/
0.
0#
0$
0%
0&
#450000
0!
02
03
1'
#455000
1!
12
13
0'
1>!
0?!
15
#460000
0!
02
03
1'
#465000
1!
12
13
0'
1?!
17
06
05
09
08
1;
0:
1<
#470000
0!
02
03
1'
#475000
1!
12
13
0'
1;!
0<!
0=!
0>!
0?!
0=
0<
0;
1:
0w
19
18
07
15
1?
0>
1=
1<
0:
08
1@
0?
1>
0@
#480000
0!
02
03
1'
#485000
1!
12
13
0'
0x
1?!
16
05
#490000
0!
02
03
1'
#495000
1!
12
13
0'
1>!
0?!
15
#500000
0!
02
03
1'
#505000
1!
12
13
0'
1?!
17
06
05
18
#510000
0!
02
03
1'
#515000
1!
12
13
0'
1=!
0>!
0?!
1w
09
08
07
15
1:
19
18
0:
#520000
0!
02
03
1'
#525000
1!
12
13
0'
1x
1?!
16
05
1}
0y
11
10
1/
1.
1#
1$
1%
1&
#530000
0!
02
03
1'
#535000
1!
12
13
0'
1>!
0?!
15
#540000
0!
02
03
1'
#545000
1!
12
13
0'
1?!
17
06
05
09
08
1:
#550000
0!
02
03
1'
#555000
1!
12
13
0'
1<!
0=!
0>!
0?!
1;
0:
0w
19
18
07
15
0=
0<
0;
1:
08
1?
0>
1=
1<
1@
0?
1>
0@
#560000
0!
02
03
1'
#565000
1!
12
13
0'
0x
1?!
16
05
#570000
0!
02
03
1'
#575000
1!
12
13
0'
1>!
0?!
15
#580000
0!
02
03
1'
#585000
1!
12
13
0'
1?!
17
06
05
18
#590000
0!
02
03
1'
#595000
1!
12
13
0'
1=!
0>!
0?!
1w
09
08
07
15
1;
0:
19
18
0=
0<
0;
1:
1?
0>
1=
1<
1@
0?
1>
0@
#600000
0!
02
03
1'
#605000
1!
12
13
0'
1x
1?!
16
05
0}
1y
01
00
0/
0.
0#
0$
0%
0&
#610000
0!
02
03
1'
#615000
1!
12
13
0'
1>!
0?!
15
#620000
0!
02
03
1'
#625000
1!
12
13
0'
1?!
17
06
05
09
08
1;
0:
0=
0<
1?
0>
1@
#630000
0!
02
03
1'
#635000
1!
12
13
0'
19!
0:!
0;!
0<!
0=!
0>!
0?!
0A
0@
0?
1>
1=
1<
0;
1:
0w
19
18
07
15
1B
1A
1@
0>
0<
0:
08
0B
#640000
0!
02
03
1'
#645000
1!
12
13
0'
0x
1?!
16
05
#650000
0!
02
03
1'
#655000
1!
12
13
0'
1>!
0?!
15
#660000
0!
02
03
1'
#665000
1!
12
13
0'
1?!
17
06
05
18
#670000
0!
02
03
1'
#675000
1!
12
13
0'
1=!
0>!
0?!
1w
09
08
07
15
1:
19
18
0:
#680000
0!
02
03
1'
#685000
1!
12
13
0'
1x
1?!
16
05
1}
0y
11
10
1/
1.
1#
1$
1%
1&
#690000
0!
02
03
1'
#695000
1!
12
13
0'
1>!
0?!
15
#700000
0!
02
03
1'
#705000
1!
12
13
0'
1?!
17
06
05
09
08
1:
#710000
0!
02
03
1'
#715000
1!
12
13
0'
1<!
0=!
0>!
0?!
1;
0:
0w
19
18
07
15
1<
0;
1:
08
0<
#720000
0!
02
03
1'
#725000
1!
12
13
0'
0x
1?!
16
05
#730000
0!
02
03
1'
#735000
1!
12
13
0'
1>!
0?!
15
#740000
0!
02
03
1'
#745000
1!
12
13
0'
1?!
17
06
05
18
#750000
0!
02
03
1'
#755000
1!
12
13
0'
1=!
0>!
0?!
1w
09
08
07
15
1;
0:
19
18
1<
0;
1:
0<
#760000
0!
02
03
1'
#765000
1!
12
13
0'
1x
1?!
16
05
0}
1y
01
00
0/
0.
0#
0$
0%
0&
#770000
0!
02
03
1'
#775000
1!
12
13
0'
1>!
0?!
15
#780000
0!
02
03
1'
#785000
1!
12
13
0'
1?!
17
06
05
09
08
1;
0:
1<
#790000
0!
02
03
1'
#795000
1!
12
13
0'
1;!
0<!
0=!
0>!
0?!
0=
0<
0;
1:
0w
19
18
07
15
1>
1=
1<
0:
08
0>
#800000
0!
02
03
1'
#805000
1!
12
13
0'
0x
1?!
16
05
#810000
0!
02
03
1'
#815000
1!
12
13
0'
1>!
0?!
15
#820000
0!
02
03
1'
#825000
1!
12
13
0'
1?!
17
06
05
18
#830000
0!
02
03
1'
#835000
1!
12
13
0'
1=!
0>!
0?!
1w
09
08
07
15
1:
19
18
0:
#840000
0!
02
03
1'
#845000
1!
12
13
0'
1x
1?!
16
05
1}
0y
11
10
1/
1.
1#
1$
1%
1&
#850000
0!
02
03
1'
#855000
1!
12
13
0'
1>!
0?!
15
#860000
0!
02
03
1'
#865000
1!
12
13
0'
1?!
17
06
05
09
08
1:
#870000
0!
02
03
1'
#875000
1!
12
13
0'
1<!
0=!
0>!
0?!
1;
0:
0w
19
18
07
15
0=
0<
0;
1:
08
1>
1=
1<
0>
#880000
0!
02
03
1'
#885000
1!
12
13
0'
0x
1?!
16
05
#890000
0!
02
03
1'
#895000
1!
12
13
0'
1>!
0?!
15
#900000
0!
02
03
1'
#905000
1!
12
13
0'
1?!
17
06
05
18
#910000
0!
02
03
1'
#915000
1!
12
13
0'
1=!
0>!
0?!
1w
09
08
07
15
1;
0:
19
18
0=
0<
0;
1:
1>
1=
1<
0>
#920000
0!
02
03
1'
#925000
1!
12
13
0'
1x
1?!
16
05
0}
1y
01
00
0/
0.
0#
0$
0%
0&
#930000
0!
02
03
1'
#935000
1!
12
13
0'
1>!
0?!
15
#940000
0!
02
03
1'
#945000
1!
12
13
0'
1?!
17
06
05
09
08
1;
0:
0=
0<
1>
#950000
0!
02
03
1'
#955000
1!
12
13
0'
1:!
0;!
0<!
0=!
0>!
0?!
1?
0>
1=
1<
0;
1:
0w
19
18
07
15
0A
0@
0?
1>
0<
0:
08
1B
1A
1@
0B
#960000
0!
02
03
1'
#965000
1!
12
13
0'
0x
1?!
16
05
#970000
0!
02
03
1'
#975000
1!
12
13
0'
1>!
0?!
15
#980000
0!
02
03
1'
#985000
1!
12
13
0'
1?!
17
06
05
18
#990000
0!
02
03
1'
#995000
1!
12
13
0'
1=!
0>!
0?!
1w
09
08
07
15
1:
19
18
0:
