COA/Lab/alterafiles/lab_03_coa/simulation/qsim/ahm.msim.vcd
$comment
	File created using the following command:
		vcd file ahm.msim.vcd -direction
$end
$date
	Thu Mar 13 01:21:15 2025
$end
$version
	ModelSim Version 10.1d
$end
$timescale
	1ps
$end
$scope module ahm_vlg_vec_tst $end
$var reg 1 ! Cin $end
$var reg 1 " in1 $end
$var reg 1 # in2 $end
$var reg 2 $ selector [1:0] $end
$var wire 1 % cout $end
$var wire 1 & result $end
$var wire 1 ' sampler $end
$scope module i1 $end
$var wire 1 ( gnd $end
$var wire 1 ) vcc $end
$var wire 1 * unknown $end
$var tri1 1 + devclrn $end
$var tri1 1 , devpor $end
$var tri1 1 - devoe $end
$var wire 1 . result~output_o $end
$var wire 1 / cout~output_o $end
$var wire 1 0 Cin~input_o $end
$var wire 1 1 selector[0]~input_o $end
$var wire 1 2 selector[1]~input_o $end
$var wire 1 3 in2~input_o $end
$var wire 1 4 in1~input_o $end
$var wire 1 5 U5|X~0_combout $end
$var wire 1 6 U5|X~1_combout $end
$var wire 1 7 U4|C~0_combout $end
$upscope $end
$upscope $end
$enddefinitions $end
#0
$dumpvars
0!
0"
0#
b0 $
0%
0&
x'
0(
1)
x*
1+
1,
1-
0.
0/
00
01
02
03
04
05
06
07
$end
#5000
1!
10
0'
#10000
1#
0!
13
00
1'
#15000
1!
10
0'
17
1/
1%
#20000
1"
0#
0!
14
03
00
1'
07
0/
0%
#25000
1!
10
0'
17
1/
1%
#30000
1#
0!
13
00
1'
15
16
1.
1&
#35000
1!
10
0'
#40000
b1 $
0"
0#
0!
11
04
03
00
1'
05
07
0/
0%
06
0.
0&
#45000
1!
10
0'
#50000
1#
0!
13
00
1'
15
16
1.
1&
#55000
1!
10
0'
17
1/
1%
#60000
1"
0#
0!
14
03
00
1'
07
0/
0%
#65000
1!
10
0'
17
1/
1%
#70000
1#
0!
13
00
1'
#75000
1!
10
0'
#80000
b11 $
b10 $
0"
0#
0!
01
12
04
03
00
1'
07
0/
0%
#85000
1!
10
0'
#90000
1#
0!
13
00
1'
#95000
1!
10
0'
17
1/
1%
#100000
1"
0#
0!
14
03
00
1'
07
0/
0%
#105000
1!
10
0'
17
1/
1%
#110000
1#
0!
13
00
1'
05
06
0.
0&
#115000
1!
10
0'
#120000
b11 $
0"
0#
0!
11
04
03
00
1'
07
0/
0%
#125000
1!
10
0'
16
1.
1&
#130000
1#
0!
13
00
1'
15
06
0.
0&
16
1.
1&
#135000
1!
10
0'
17
06
1/
0.
1%
0&
#140000
1"
0#
0!
14
03
00
1'
07
16
0/
1.
0%
1&
#145000
1!
10
0'
17
06
1/
0.
1%
0&
#150000
1#
0!
13
00
1'
05
16
1.
1&
06
0.
0&
#155000
1!
10
0'
16
1.
1&
#160000
b1 $
b0 $
0"
0#
0!
01
02
04
03
00
1'
06
07
0.
0/
0&
0%
#165000
1!
10
0'
#170000
1#
0!
13
00
1'
#175000
1!
10
0'
17
1/
1%
#180000
1"
0#
0!
14
03
00
1'
07
0/
0%
#185000
1!
10
0'
17
1/
1%
#190000
1#
0!
13
00
1'
15
16
1.
1&
#195000
1!
10
0'
#200000
b1 $
0"
0#
0!
11
04
03
00
1'
05
07
0/
0%
06
0.
0&
#205000
1!
10
0'
#210000
1#
0!
13
00
1'
15
16
1.
1&
#215000
1!
10
0'
17
1/
1%
#220000
1"
0#
0!
14
03
00
1'
07
0/
0%
#225000
1!
10
0'
17
1/
1%
#230000
1#
0!
13
00
1'
#235000
1!
10
0'
#240000
b11 $
b10 $
0"
0#
0!
01
12
04
03
00
1'
07
0/
0%
#245000
1!
10
0'
#250000
1#
0!
13
00
1'
#255000
1!
10
0'
17
1/
1%
#260000
1"
0#
0!
14
03
00
1'
07
0/
0%
#265000
1!
10
0'
17
1/
1%
#270000
1#
0!
13
00
1'
05
06
0.
0&
#275000
1!
10
0'
#280000
b11 $
0"
0#
0!
11
04
03
00
1'
07
0/
0%
#285000
1!
10
0'
16
1.
1&
#290000
1#
0!
13
00
1'
15
06
0.
0&
16
1.
1&
#295000
1!
10
0'
17
06
1/
0.
1%
0&
#300000
1"
0#
0!
14
03
00
1'
07
16
0/
1.
0%
1&
#305000
1!
10
0'
17
06
1/
0.
1%
0&
#310000
1#
0!
13
00
1'
05
16
1.
1&
06
0.
0&
#315000
1!
10
0'
16
1.
1&
#320000
b1 $
b0 $
0"
0#
0!
01
02
04
03
00
1'
06
07
0.
0/
0&
0%
#325000
1!
10
0'
#330000
1#
0!
13
00
1'
#335000
1!
10
0'
17
1/
1%
#340000
1"
0#
0!
14
03
00
1'
07
0/
0%
#345000
1!
10
0'
17
1/
1%
#350000
1#
0!
13
00
1'
15
16
1.
1&
#355000
1!
10
0'
#360000
b1 $
0"
0#
0!
11
04
03
00
1'
05
07
0/
0%
06
0.
0&
#365000
1!
10
0'
#370000
1#
0!
13
00
1'
15
16
1.
1&
#375000
1!
10
0'
17
1/
1%
#380000
1"
0#
0!
14
03
00
1'
07
0/
0%
#385000
1!
10
0'
17
1/
1%
#390000
1#
0!
13
00
1'
#395000
1!
10
0'
#400000
b11 $
b10 $
0"
0#
0!
01
12
04
03
00
1'
07
0/
0%
#405000
1!
10
0'
#410000
1#
0!
13
00
1'
#415000
1!
10
0'
17
1/
1%
#420000
1"
0#
0!
14
03
00
1'
07
0/
0%
#425000
1!
10
0'
17
1/
1%
#430000
1#
0!
13
00
1'
05
06
0.
0&
#435000
1!
10
0'
#440000
b11 $
0"
0#
0!
11
04
03
00
1'
07
0/
0%
#445000
1!
10
0'
16
1.
1&
#450000
1#
0!
13
00
1'
15
06
0.
0&
16
1.
1&
#455000
1!
10
0'
17
06
1/
0.
1%
0&
#460000
1"
0#
0!
14
03
00
1'
07
16
0/
1.
0%
1&
#465000
1!
10
0'
17
06
1/
0.
1%
0&
#470000
1#
0!
13
00
1'
05
16
1.
1&
06
0.
0&
#475000
1!
10
0'
16
1.
1&
#480000
b1 $
b0 $
0"
0#
0!
01
02
04
03
00
1'
06
07
0.
0/
0&
0%
#485000
1!
10
0'
#490000
1#
0!
13
00
1'
#495000
1!
10
0'
17
1/
1%
#500000
1"
0#
0!
14
03
00
1'
07
0/
0%
#505000
1!
10
0'
17
1/
1%
#510000
1#
0!
13
00
1'
15
16
1.
1&
#515000
1!
10
0'
#520000
b1 $
0"
0#
0!
11
04
03
00
1'
05
07
0/
0%
06
0.
0&
#525000
1!
10
0'
#530000
1#
0!
13
00
1'
15
16
1.
1&
#535000
1!
10
0'
17
1/
1%
#540000
1"
0#
0!
14
03
00
1'
07
0/
0%
#545000
1!
10
0'
17
1/
1%
#550000
1#
0!
13
00
1'
#555000
1!
10
0'
#560000
b11 $
b10 $
0"
0#
0!
01
12
04
03
00
1'
07
0/
0%
#565000
1!
10
0'
#570000
1#
0!
13
00
1'
#575000
1!
10
0'
17
1/
1%
#580000
1"
0#
0!
14
03
00
1'
07
0/
0%
#585000
1!
10
0'
17
1/
1%
#590000
1#
0!
13
00
1'
05
06
0.
0&
#595000
1!
10
0'
#600000
b11 $
0"
0#
0!
11
04
03
00
1'
07
0/
0%
#605000
1!
10
0'
16
1.
1&
#610000
1#
0!
13
00
1'
15
06
0.
0&
16
1.
1&
#615000
1!
10
0'
17
06
1/
0.
1%
0&
#620000
1"
0#
0!
14
03
00
1'
07
16
0/
1.
0%
1&
#625000
1!
10
0'
17
06
1/
0.
1%
0&
#630000
1#
0!
13
00
1'
05
16
1.
1&
06
0.
0&
#635000
1!
10
0'
16
1.
1&
#640000
b1 $
b0 $
0"
0#
0!
01
02
04
03
00
1'
06
07
0.
0/
0&
0%
#645000
1!
10
0'
#650000
1#
0!
13
00
1'
#655000
1!
10
0'
17
1/
1%
#660000
1"
0#
0!
14
03
00
1'
07
0/
0%
#665000
1!
10
0'
17
1/
1%
#670000
1#
0!
13
00
1'
15
16
1.
1&
#675000
1!
10
0'
#680000
b1 $
0"
0#
0!
11
04
03
00
1'
05
07
0/
0%
06
0.
0&
#685000
1!
10
0'
#690000
1#
0!
13
00
1'
15
16
1.
1&
#695000
1!
10
0'
17
1/
1%
#700000
1"
0#
0!
14
03
00
1'
07
0/
0%
#705000
1!
10
0'
17
1/
1%
#710000
1#
0!
13
00
1'
#715000
1!
10
0'
#720000
b11 $
b10 $
0"
0#
0!
01
12
04
03
00
1'
07
0/
0%
#725000
1!
10
0'
#730000
1#
0!
13
00
1'
#735000
1!
10
0'
17
1/
1%
#740000
1"
0#
0!
14
03
00
1'
07
0/
0%
#745000
1!
10
0'
17
1/
1%
#750000
1#
0!
13
00
1'
05
06
0.
0&
#755000
1!
10
0'
#760000
b11 $
0"
0#
0!
11
04
03
00
1'
07
0/
0%
#765000
1!
10
0'
16
1.
1&
#770000
1#
0!
13
00
1'
15
06
0.
0&
16
1.
1&
#775000
1!
10
0'
17
06
1/
0.
1%
0&
#780000
1"
0#
0!
14
03
00
1'
07
16
0/
1.
0%
1&
#785000
1!
10
0'
17
06
1/
0.
1%
0&
#790000
1#
0!
13
00
1'
05
16
1.
1&
06
0.
0&
#795000
1!
10
0'
16
1.
1&
#800000
b1 $
b0 $
0"
0#
0!
01
02
04
03
00
1'
06
07
0.
0/
0&
0%
#805000
1!
10
0'
#810000
1#
0!
13
00
1'
#815000
1!
10
0'
17
1/
1%
#820000
1"
0#
0!
14
03
00
1'
07
0/
0%
#825000
1!
10
0'
17
1/
1%
#830000
1#
0!
13
00
1'
15
16
1.
1&
#835000
1!
10
0'
#840000
b1 $
0"
0#
0!
11
04
03
00
1'
05
07
0/
0%
06
0.
0&
#845000
1!
10
0'
#850000
1#
0!
13
00
1'
15
16
1.
1&
#855000
1!
10
0'
17
1/
1%
#860000
1"
0#
0!
14
03
00
1'
07
0/
0%
#865000
1!
10
0'
17
1/
1%
#870000
1#
0!
13
00
1'
#875000
1!
10
0'
#880000
b11 $
b10 $
0"
0#
0!
01
12
04
03
00
1'
07
0/
0%
#885000
1!
10
0'
#890000
1#
0!
13
00
1'
#895000
1!
10
0'
17
1/
1%
#900000
1"
0#
0!
14
03
00
1'
07
0/
0%
#905000
1!
10
0'
17
1/
1%
#910000
1#
0!
13
00
1'
05
06
0.
0&
#915000
1!
10
0'
#920000
b11 $
0"
0#
0!
11
04
03
00
1'
07
0/
0%
#925000
1!
10
0'
16
1.
1&
#930000
1#
0!
13
00
1'
15
06
0.
0&
16
1.
1&
#935000
1!
10
0'
17
06
1/
0.
1%
0&
#940000
1"
0#
0!
14
03
00
1'
07
16
0/
1.
0%
1&
#945000
1!
10
0'
17
06
1/
0.
1%
0&
#950000
1#
0!
13
00
1'
05
16
1.
1&
06
0.
0&
#955000
1!
10
0'
16
1.
1&
#960000
b1 $
b0 $
0"
0#
0!
01
02
04
03
00
1'
06
07
0.
0/
0&
0%
#965000
1!
10
0'
#970000
1#
0!
13
00
1'
#975000
1!
10
0'
17
1/
1%
#980000
1"
0#
0!
14
03
00
1'
07
0/
0%
#985000
1!
10
0'
17
1/
1%
#990000
1#
0!
13
00
1'
15
16
1.
1&
#995000
1!
10
0'
