COA/Lab/alterafiles/lab_04_coa/task2/simulation/qsim/UpDownBinaryCounter.msim.vcd
$comment
	File created using the following command:
		vcd file UpDownBinaryCounter.msim.vcd -direction
$end
$date
	Thu Mar 13 13:25:48 2025
$end
$version
	ModelSim Version 10.1d
$end
$timescale
	1ps
$end
$scope module UpDownBinaryCounter_vlg_vec_tst $end
$var reg 1 ! clk $end
$var reg 1 " opcode $end
$var wire 1 # binOut [2] $end
$var wire 1 $ binOut [1] $end
$var wire 1 % binOut [0] $end
$var wire 1 & sampler $end
$scope module i1 $end
$var wire 1 ' gnd $end
$var wire 1 ( vcc $end
$var wire 1 ) unknown $end
$var tri1 1 * devclrn $end
$var tri1 1 + devpor $end
$var tri1 1 , devoe $end
$var wire 1 - binOut[0]~output_o $end
$var wire 1 . binOut[1]~output_o $end
$var wire 1 / binOut[2]~output_o $end
$var wire 1 0 clk~input_o $end
$var wire 1 1 clk~inputclkctrl_outclk $end
$var wire 1 2 U1|Q_not~0_combout $end
$var wire 1 3 U1|Q_not~q $end
$var wire 1 4 opcode~input_o $end
$var wire 1 5 d[1]~0_combout $end
$var wire 1 6 U2|Q~feeder_combout $end
$var wire 1 7 U2|Q~q $end
$var wire 1 8 U2|Q_not~0_combout $end
$var wire 1 9 U2|Q_not~q $end
$var wire 1 : d[2]~1_combout $end
$var wire 1 ; d[2]~2_combout $end
$var wire 1 < U3|Q~q $end
$upscope $end
$upscope $end
$enddefinitions $end
#0
$dumpvars
0!
0"
1%
0$
0#
x&
0'
1(
x)
1*
1+
1,
1-
0.
0/
00
01
12
03
04
15
16
07
08
09
1:
0;
0<
$end
#10000
1!
10
11
0&
13
17
02
0-
1.
0%
1$
#20000
0!
00
01
1&
#30000
1!
10
11
0&
03
0:
05
12
1-
1%
1;
18
06
#40000
0!
00
01
1&
#50000
1!
10
11
0&
19
13
1<
07
1:
02
0;
0-
1/
0.
0%
1#
0$
1;
#60000
0!
00
01
1&
#70000
1!
10
11
0&
03
15
12
1-
1%
08
16
#80000
0!
00
01
1&
#90000
1!
10
11
0&
09
13
17
02
0-
1.
0%
1$
#100000
0!
00
01
1&
#110000
1!
10
11
0&
03
0:
05
12
1-
1%
0;
18
06
#120000
0!
00
01
1&
#130000
1!
10
11
0&
19
13
0<
07
1:
02
1;
0-
0/
0.
0%
0#
0$
0;
#140000
0!
00
01
1&
#150000
1!
10
11
0&
03
15
12
1-
1%
08
16
#160000
0!
00
01
1&
#170000
1!
10
11
0&
09
13
17
02
0-
1.
0%
1$
#180000
0!
00
01
1&
#190000
1!
10
11
0&
03
0:
05
12
1-
1%
1;
18
06
#200000
0!
00
01
1&
#210000
1!
10
11
0&
19
13
1<
07
1:
02
0;
0-
1/
0.
0%
1#
0$
1;
#220000
0!
00
01
1&
#230000
1!
10
11
0&
03
15
12
1-
1%
08
16
#240000
0!
00
01
1&
#250000
1!
10
11
0&
09
13
17
02
0-
1.
0%
1$
#260000
0!
00
01
1&
#270000
1!
10
11
0&
03
0:
05
12
1-
1%
0;
18
06
#280000
0!
00
01
1&
#290000
1!
10
11
0&
19
13
0<
07
1:
02
1;
0-
0/
0.
0%
0#
0$
0;
#300000
0!
00
01
1&
#310000
1!
10
11
0&
03
15
12
1-
1%
08
16
#320000
0!
00
01
1&
#330000
1!
10
11
0&
09
13
17
02
0-
1.
0%
1$
#340000
0!
00
01
1&
#350000
1!
10
11
0&
03
0:
05
12
1-
1%
1;
18
06
#360000
0!
00
01
1&
#370000
1!
10
11
0&
19
13
1<
07
1:
02
0;
0-
1/
0.
0%
1#
0$
1;
#380000
0!
00
01
1&
#390000
1!
10
11
0&
03
15
12
1-
1%
08
16
#400000
0!
00
01
1&
#410000
1!
10
11
0&
09
13
17
02
0-
1.
0%
1$
#420000
0!
00
01
1&
#430000
1!
10
11
0&
03
0:
05
12
1-
1%
0;
18
06
#440000
0!
00
01
1&
#450000
1!
10
11
0&
19
13
0<
07
1:
02
1;
0-
0/
0.
0%
0#
0$
0;
#460000
0!
00
01
1&
#470000
1!
10
11
0&
03
15
12
1-
1%
08
16
#480000
0!
00
01
1&
#490000
1!
10
11
0&
09
13
17
02
0-
1.
0%
1$
#500000
0!
00
01
1&
#510000
1!
10
11
0&
03
0:
05
12
1-
1%
1;
18
06
#520000
0!
00
01
1&
#530000
1!
10
11
0&
19
13
1<
07
1:
02
0;
0-
1/
0.
0%
1#
0$
1;
#540000
0!
00
01
1&
#550000
1!
10
11
0&
03
15
12
1-
1%
08
16
#560000
0!
00
01
1&
#570000
1!
10
11
0&
09
13
17
02
0-
1.
0%
1$
#580000
0!
00
01
1&
#590000
1!
10
11
0&
03
0:
05
12
1-
1%
0;
18
06
#600000
0!
00
01
1&
#610000
1!
10
11
0&
19
13
0<
07
1:
02
1;
0-
0/
0.
0%
0#
0$
0;
#620000
0!
00
01
1&
#630000
1!
10
11
0&
03
15
12
1-
1%
08
16
#640000
0!
00
01
1&
#650000
1!
10
11
0&
09
13
17
02
0-
1.
0%
1$
#660000
0!
00
01
1&
#670000
1!
10
11
0&
03
0:
05
12
1-
1%
1;
18
06
#680000
0!
00
01
1&
#690000
1!
10
11
0&
19
13
1<
07
1:
02
0;
0-
1/
0.
0%
1#
0$
1;
#700000
0!
00
01
1&
#710000
1!
10
11
0&
03
15
12
1-
1%
08
16
#720000
0!
00
01
1&
#730000
1!
10
11
0&
09
13
17
02
0-
1.
0%
1$
#740000
0!
00
01
1&
#750000
1!
10
11
0&
03
0:
05
12
1-
1%
0;
18
06
#760000
0!
00
01
1&
#770000
1!
10
11
0&
19
13
0<
07
1:
02
1;
0-
0/
0.
0%
0#
0$
0;
#780000
0!
00
01
1&
#790000
1!
10
11
0&
03
15
12
1-
1%
08
16
#800000
0!
00
01
1&
#810000
1!
10
11
0&
09
13
17
02
0-
1.
0%
1$
#820000
0!
00
01
1&
#830000
1!
10
11
0&
03
0:
05
12
1-
1%
1;
18
06
#840000
0!
00
01
1&
#850000
1!
10
11
0&
19
13
1<
07
1:
02
0;
0-
1/
0.
0%
1#
0$
1;
#860000
0!
00
01
1&
#870000
1!
10
11
0&
03
15
12
1-
1%
08
16
#880000
0!
00
01
1&
#890000
1!
10
11
0&
09
13
17
02
0-
1.
0%
1$
#900000
0!
00
01
1&
#910000
1!
10
11
0&
03
0:
05
12
1-
1%
0;
18
06
#920000
0!
00
01
1&
#930000
1!
10
11
0&
19
13
0<
07
1:
02
1;
0-
0/
0.
0%
0#
0$
0;
#940000
0!
00
01
1&
#950000
1!
10
11
0&
03
15
12
1-
1%
08
16
#960000
0!
00
01
1&
#970000
1!
10
11
0&
09
13
17
02
0-
1.
0%
1$
#980000
0!
00
01
1&
#990000
1!
10
11
0&
03
0:
05
12
1-
1%
1;
18
06
