COA/Lab/alterafiles/lab_01_coa/labTask1/simulation/qsim/circuit.msim.vcd
$comment
	File created using the following command:
		vcd file circuit.msim.vcd -direction
$end
$date
	Sun Feb 23 16:41:58 2025
$end
$version
	ModelSim Version 10.1d
$end
$timescale
	1ps
$end
$scope module circuit_vlg_vec_tst $end
$var reg 1 ! A $end
$var reg 1 " B $end
$var reg 1 # C $end
$var wire 1 $ Y $end
$var wire 1 % sampler $end
$scope module i1 $end
$var wire 1 & gnd $end
$var wire 1 ' vcc $end
$var wire 1 ( unknown $end
$var tri1 1 ) devclrn $end
$var tri1 1 * devpor $end
$var tri1 1 + devoe $end
$var wire 1 , Y~output_o $end
$var wire 1 - A~input_o $end
$var wire 1 . B~input_o $end
$var wire 1 / C~input_o $end
$var wire 1 0 Y~0_combout $end
$upscope $end
$upscope $end
$enddefinitions $end
#0
$dumpvars
0!
0"
0#
1$
x%
0&
1'
x(
1)
1*
1+
1,
0-
0.
0/
10
$end
#50000
1#
1/
0%
00
0,
0$
#100000
1"
0#
1.
0/
1%
10
1,
1$
#150000
1#
1/
0%
00
0,
0$
#200000
1!
0"
0#
1-
0.
0/
1%
10
1,
1$
#250000
1#
1/
0%
00
0,
0$
#300000
1"
0#
1.
0/
1%
10
1,
1$
#350000
1#
1/
0%
#400000
0!
0"
0#
0-
0.
0/
1%
#450000
1#
1/
0%
00
0,
0$
#500000
1"
0#
1.
0/
1%
10
1,
1$
#550000
1#
1/
0%
00
0,
0$
#600000
1!
0"
0#
1-
0.
0/
1%
10
1,
1$
#650000
1#
1/
0%
00
0,
0$
#700000
1"
0#
1.
0/
1%
10
1,
1$
#750000
1#
1/
0%
#800000
0!
0"
0#
0-
0.
0/
1%
#850000
1#
1/
0%
00
0,
0$
#900000
1"
0#
1.
0/
1%
10
1,
1$
#950000
1#
1/
0%
00
0,
0$
