COA/Lab/alterafiles/lab_05_coa/inlab1/simulation/qsim/FSMdiv.msim.vcd
$comment
	File created using the following command:
		vcd file FSMdiv.msim.vcd -direction
$end
$date
	Fri Mar 14 08:47:10 2025
$end
$version
	ModelSim Version 10.1d
$end
$timescale
	1ps
$end
$scope module FSMdiv_vlg_vec_tst $end
$var reg 1 ! clk $end
$var reg 1 " letstart $end
$var wire 1 # quot [3] $end
$var wire 1 $ quot [2] $end
$var wire 1 % quot [1] $end
$var wire 1 & quot [0] $end
$var wire 1 ' remaind [3] $end
$var wire 1 ( remaind [2] $end
$var wire 1 ) remaind [1] $end
$var wire 1 * remaind [0] $end
$var wire 1 + sampler $end
$scope module i1 $end
$var wire 1 , gnd $end
$var wire 1 - vcc $end
$var wire 1 . unknown $end
$var tri1 1 / devclrn $end
$var tri1 1 0 devpor $end
$var tri1 1 1 devoe $end
$var wire 1 2 remaind[0]~output_o $end
$var wire 1 3 remaind[1]~output_o $end
$var wire 1 4 remaind[2]~output_o $end
$var wire 1 5 remaind[3]~output_o $end
$var wire 1 6 quot[0]~output_o $end
$var wire 1 7 quot[1]~output_o $end
$var wire 1 8 quot[2]~output_o $end
$var wire 1 9 quot[3]~output_o $end
$var wire 1 : clk~input_o $end
$var wire 1 ; clk~inputclkctrl_outclk $end
$var wire 1 < Mux2~0_combout $end
$var wire 1 = Mux12~0_combout $end
$var wire 1 > letstart~input_o $end
$var wire 1 ? Mux14~0_combout $end
$var wire 1 @ Mux12~1_combout $end
$var wire 1 A x[0]~0_combout $end
$var wire 1 B x[0]~1_combout $end
$var wire 1 C Mux1~0_combout $end
$var wire 1 D LessThan0~0_combout $end
$var wire 1 E Mux13~0_combout $end
$var wire 1 F x[3]~2_combout $end
$var wire 1 G Mux13~1_combout $end
$var wire 1 H Mux13~2_combout $end
$var wire 1 I Mux3~0_combout $end
$var wire 1 J Mux18~0_combout $end
$var wire 1 K remaind[0]~reg0_q $end
$var wire 1 L remaind[1]~reg0feeder_combout $end
$var wire 1 M remaind[1]~reg0_q $end
$var wire 1 N remaind[2]~reg0feeder_combout $end
$var wire 1 O remaind[2]~reg0_q $end
$var wire 1 P remaind[3]~0_combout $end
$var wire 1 Q remaind[3]~reg0_q $end
$var wire 1 R quot[0]~reg0feeder_combout $end
$var wire 1 S quot[0]~reg0_q $end
$var wire 1 T quot[1]~reg0feeder_combout $end
$var wire 1 U quot[1]~reg0_q $end
$var wire 1 V Mux9~0_combout $end
$var wire 1 W quot[2]~reg0feeder_combout $end
$var wire 1 X quot[2]~reg0_q $end
$var wire 1 Y Add1~0_combout $end
$var wire 1 Z Mux8~0_combout $end
$var wire 1 [ quot[3]~reg0feeder_combout $end
$var wire 1 \ quot[3]~reg0_q $end
$var wire 1 ] mystate [2] $end
$var wire 1 ^ mystate [1] $end
$var wire 1 _ mystate [0] $end
$var wire 1 ` q [3] $end
$var wire 1 a q [2] $end
$var wire 1 b q [1] $end
$var wire 1 c q [0] $end
$var wire 1 d x [3] $end
$var wire 1 e x [2] $end
$var wire 1 f x [1] $end
$var wire 1 g x [0] $end
$upscope $end
$upscope $end
$enddefinitions $end
#0
$dumpvars
0!
1"
0&
0%
0$
0#
0*
0)
0(
0'
x+
0,
1-
x.
1/
10
11
02
03
04
05
06
07
08
09
0:
0;
0<
0=
1>
1?
0@
0A
1B
0C
1D
1E
0F
1G
1H
0I
0J
0K
0L
0M
0N
0O
1P
0Q
0R
0S
0T
0U
0V
0W
0X
0Y
0Z
0[
0\
0_
0^
0]
zc
zb
0a
0`
0g
0f
0e
0d
$end
#10000
1!
1:
1;
0+
1^
1_
1I
1F
1C
1=
#20000
0!
0:
0;
1+
#30000
1!
1:
1;
0+
1g
1d
1e
1R
0I
0D
0C
0=
1<
0P
0G
0B
1@
1N
1B
0@
#40000
0!
0:
0;
1+
#50000
1!
1:
1;
0+
0g
0e
1f
0R
1I
1D
1C
1=
0N
1T
1L
0H
0B
1@
#60000
0!
0:
0;
1+
#70000
1!
1:
1;
0+
0^
1]
1J
0I
1G
0F
0E
0C
1A
0?
0=
0<
0@
1F
#80000
0!
0:
0;
1+
#90000
1!
1:
1;
0+
0]
0_
1U
1M
0J
1E
0A
1?
17
13
1%
1)
1H
0F
1B
#100000
0!
0:
0;
1+
#110000
1!
1:
1;
0+
1^
0d
0f
1_
1I
1F
1C
1=
1P
0T
0L
#120000
0!
0:
0;
1+
#130000
1!
1:
1;
0+
1g
1d
1e
1R
0I
0D
0C
0=
1<
0P
0G
0B
1@
1N
1B
0@
#140000
0!
0:
0;
1+
#150000
1!
1:
1;
0+
0g
0e
1f
0R
1I
1D
1C
1=
0N
1T
1L
0H
0B
1@
#160000
0!
0:
0;
1+
#170000
1!
1:
1;
0+
0^
1]
1J
0I
1G
0F
0E
0C
1A
0?
0=
0<
0@
1F
#180000
0!
0:
0;
1+
#190000
1!
1:
1;
0+
0]
0_
0J
1E
0A
1?
1H
0F
1B
#200000
0!
0:
0;
1+
#210000
1!
1:
1;
0+
1^
0d
0f
1_
1I
1F
1C
1=
1P
0T
0L
#220000
0!
0:
0;
1+
#230000
1!
1:
1;
0+
1g
1d
1e
1R
0I
0D
0C
0=
1<
0P
0G
0B
1@
1N
1B
0@
#240000
0!
0:
0;
1+
#250000
1!
1:
1;
0+
0g
0e
1f
0R
1I
1D
1C
1=
0N
1T
1L
0H
0B
1@
#260000
0!
0:
0;
1+
#270000
1!
1:
1;
0+
0^
1]
1J
0I
1G
0F
0E
0C
1A
0?
0=
0<
0@
1F
#280000
0!
0:
0;
1+
#290000
1!
1:
1;
0+
0]
0_
0J
1E
0A
1?
1H
0F
1B
#300000
0!
0:
0;
1+
#310000
1!
1:
1;
0+
1^
0d
0f
1_
1I
1F
1C
1=
1P
0T
0L
#320000
0!
0:
0;
1+
#330000
1!
1:
1;
0+
1g
1d
1e
1R
0I
0D
0C
0=
1<
0P
0G
0B
1@
1N
1B
0@
#340000
0!
0:
0;
1+
#350000
1!
1:
1;
0+
0g
0e
1f
0R
1I
1D
1C
1=
0N
1T
1L
0H
0B
1@
#360000
0!
0:
0;
1+
#370000
1!
1:
1;
0+
0^
1]
1J
0I
1G
0F
0E
0C
1A
0?
0=
0<
0@
1F
#380000
0!
0:
0;
1+
#390000
1!
1:
1;
0+
0]
0_
0J
1E
0A
1?
1H
0F
1B
#400000
0!
0:
0;
1+
#410000
1!
1:
1;
0+
1^
0d
0f
1_
1I
1F
1C
1=
1P
0T
0L
#420000
0!
0:
0;
1+
#430000
1!
1:
1;
0+
1g
1d
1e
1R
0I
0D
0C
0=
1<
0P
0G
0B
1@
1N
1B
0@
#440000
0!
0:
0;
1+
#450000
1!
1:
1;
0+
0g
0e
1f
0R
1I
1D
1C
1=
0N
1T
1L
0H
0B
1@
#460000
0!
0:
0;
1+
#470000
1!
1:
1;
0+
0^
1]
1J
0I
1G
0F
0E
0C
1A
0?
0=
0<
0@
1F
#480000
0!
0:
0;
1+
#490000
1!
1:
1;
0+
0]
0_
0J
1E
0A
1?
1H
0F
1B
#500000
0!
0:
0;
1+
#510000
1!
1:
1;
0+
1^
0d
0f
1_
1I
1F
1C
1=
1P
0T
0L
#520000
0!
0:
0;
1+
#530000
1!
1:
1;
0+
1g
1d
1e
1R
0I
0D
0C
0=
1<
0P
0G
0B
1@
1N
1B
0@
#540000
0!
0:
0;
1+
#550000
1!
1:
1;
0+
0g
0e
1f
0R
1I
1D
1C
1=
0N
1T
1L
0H
0B
1@
#560000
0!
0:
0;
1+
#570000
1!
1:
1;
0+
0^
1]
1J
0I
1G
0F
0E
0C
1A
0?
0=
0<
0@
1F
#580000
0!
0:
0;
1+
#590000
1!
1:
1;
0+
0]
0_
0J
1E
0A
1?
1H
0F
1B
#600000
0!
0:
0;
1+
#610000
1!
1:
1;
0+
1^
0d
0f
1_
1I
1F
1C
1=
1P
0T
0L
#620000
0!
0:
0;
1+
#630000
1!
1:
1;
0+
1g
1d
1e
1R
0I
0D
0C
0=
1<
0P
0G
0B
1@
1N
1B
0@
#640000
0!
0:
0;
1+
#650000
1!
1:
1;
0+
0g
0e
1f
0R
1I
1D
1C
1=
0N
1T
1L
0H
0B
1@
#660000
0!
0:
0;
1+
#670000
1!
1:
1;
0+
0^
1]
1J
0I
1G
0F
0E
0C
1A
0?
0=
0<
0@
1F
#680000
0!
0:
0;
1+
#690000
1!
1:
1;
0+
0]
0_
0J
1E
0A
1?
1H
0F
1B
#700000
0!
0:
0;
1+
#710000
1!
1:
1;
0+
1^
0d
0f
1_
1I
1F
1C
1=
1P
0T
0L
#720000
0!
0:
0;
1+
#730000
1!
1:
1;
0+
1g
1d
1e
1R
0I
0D
0C
0=
1<
0P
0G
0B
1@
1N
1B
0@
#740000
0!
0:
0;
1+
#750000
1!
1:
1;
0+
0g
0e
1f
0R
1I
1D
1C
1=
0N
1T
1L
0H
0B
1@
#760000
0!
0:
0;
1+
#770000
1!
1:
1;
0+
0^
1]
1J
0I
1G
0F
0E
0C
1A
0?
0=
0<
0@
1F
#780000
0!
0:
0;
1+
#790000
1!
1:
1;
0+
0]
0_
0J
1E
0A
1?
1H
0F
1B
#800000
0!
0:
0;
1+
#810000
1!
1:
1;
0+
1^
0d
0f
1_
1I
1F
1C
1=
1P
0T
0L
#820000
0!
0:
0;
1+
#830000
1!
1:
1;
0+
1g
1d
1e
1R
0I
0D
0C
0=
1<
0P
0G
0B
1@
1N
1B
0@
#840000
0!
0:
0;
1+
#850000
1!
1:
1;
0+
0g
0e
1f
0R
1I
1D
1C
1=
0N
1T
1L
0H
0B
1@
#860000
0!
0:
0;
1+
#870000
1!
1:
1;
0+
0^
1]
1J
0I
1G
0F
0E
0C
1A
0?
0=
0<
0@
1F
#880000
0!
0:
0;
1+
#890000
1!
1:
1;
0+
0]
0_
0J
1E
0A
1?
1H
0F
1B
#900000
0!
0:
0;
1+
#910000
1!
1:
1;
0+
1^
0d
0f
1_
1I
1F
1C
1=
1P
0T
0L
#920000
0!
0:
0;
1+
#930000
1!
1:
1;
0+
1g
1d
1e
1R
0I
0D
0C
0=
1<
0P
0G
0B
1@
1N
1B
0@
#940000
0!
0:
0;
1+
#950000
1!
1:
1;
0+
0g
0e
1f
0R
1I
1D
1C
1=
0N
1T
1L
0H
0B
1@
#960000
0!
0:
0;
1+
#970000
1!
1:
1;
0+
0^
1]
1J
0I
1G
0F
0E
0C
1A
0?
0=
0<
0@
1F
#980000
0!
0:
0;
1+
#990000
1!
1:
1;
0+
0]
0_
0J
1E
0A
1?
1H
0F
1B
